Chapter 4
…
This is looking a little better and now Im very curious about the country in Asia where gdp went down over time.

gapminder %>% 
    select(continent, country, gdpPercap) %>%
    filter(continent == "Asia") %>% 
    group_by(country) %>%
    summarise(mean = mean(gdpPercap)) %>% 
    arrange(mean)

## # A tibble: 33 x 2
##    country      mean
##    <fct>       <dbl>
##  1 Myanmar      439.
##  2 Cambodia     675.
##  3 Nepal        783.
##  4 Afghanistan  803.
##  5 Bangladesh   818.
##  6 Vietnam     1018.
##  7 India       1057.
##  8 Pakistan    1439.
##  9 China       1488.
## 10 Yemen, Rep. 1569.
## # ... with 23 more rows
…
